<Qucs Schematic 24.2.1>
<Properties>
  <View=226,-90,1391,639,1.35021,0,57>
  <Grid=10,10,1>
  <DataSet=prueba.dat>
  <DataDisplay=prueba.dpl>
  <OpenDisplay=0>
  <Script=prueba.m>
  <RunScript=0>
  <showFrame=0>
  <FrameText0=Title>
  <FrameText1=Drawn By:>
  <FrameText2=Date:>
  <FrameText3=Revision:>
</Properties>
<Symbol>
</Symbol>
<Components>
  <R R3 1 600 330 15 -26 0 1 "5.6k" 1 "26.85" 0 "0.0" 0 "0.0" 0 "26.85" 0 "european" 0>
  <R R1 1 440 330 15 -26 0 1 "5.6k" 1 "26.85" 0 "0.0" 0 "0.0" 0 "26.85" 0 "european" 0>
  <R R2 1 440 420 15 -26 0 1 "90" 1 "26.85" 0 "0.0" 0 "0.0" 0 "26.85" 0 "european" 0>
  <OpAmp OP2 1 880 410 -26 42 0 0 "1e6" 1 "15 V" 0>
  <OpAmp OP1 1 880 230 -26 -86 1 0 "1e6" 1 "15 V" 0>
  <OpAmp OP3 1 1180 330 -26 42 0 0 "1e6" 1 "15 V" 0>
  <R R5 1 920 260 15 -26 0 1 "10k" 1 "26.85" 0 "0.0" 0 "0.0" 0 "26.85" 0 "european" 0>
  <R R7 1 920 380 15 -26 0 1 "10 kOhm" 1 "26.85" 0 "0.0" 0 "0.0" 0 "26.85" 0 "european" 0>
  <R R10 1 1030 410 -26 15 0 0 "10 kOhm" 1 "26.85" 0 "0.0" 0 "0.0" 0 "26.85" 0 "european" 0>
  <R R11 1 1100 490 15 -26 0 1 "10k" 1 "26.85" 0 "0.0" 0 "0.0" 0 "26.85" 0 "european" 0>
  <R R9 1 1250 230 -26 15 0 0 "10 kOhm" 1 "26.85" 0 "0.0" 0 "0.0" 0 "26.85" 0 "european" 0>
  <.DC DC1 1 370 80 0 33 0 0 "26.85" 0 "0.001" 0 "1 pA" 0 "1 uV" 0 "no" 0 "150" 0 "no" 0 "none" 0 "CroutLU" 0>
  <GND * 1 410 450 0 0 0 0>
  <R R6 1 920 320 15 -26 0 1 "220" 1 "26.85" 0 "0.0" 0 "0.0" 0 "26.85" 0 "european" 0>
  <R R8 1 1050 230 -26 15 0 0 "10k" 1 "26.85" 0 "0.0" 0 "0.0" 0 "26.85" 0 "european" 0>
  <R R4 1 600 420 15 -26 0 1 "100" 1 "26.85" 0 "0.0" 0 "0.0" 0 "26.85" 0 "european" 0>
  <Vdc V1 1 280 390 18 -26 0 1 "5V" 1>
</Components>
<Wires>
  <440 300 600 300 "" 0 0 0 "">
  <440 360 440 380 "" 0 0 0 "">
  <600 360 600 380 "" 0 0 0 "">
  <440 450 520 450 "" 0 0 0 "">
  <280 300 440 300 "" 0 0 0 "">
  <280 300 280 360 "" 0 0 0 "">
  <280 420 280 450 "" 0 0 0 "">
  <280 450 410 450 "" 0 0 0 "">
  <850 290 920 290 "" 0 0 0 "">
  <850 250 850 290 "" 0 0 0 "">
  <850 350 850 390 "" 0 0 0 "">
  <850 350 920 350 "" 0 0 0 "">
  <920 410 1000 410 "" 0 0 0 "">
  <1100 410 1100 460 "" 0 0 0 "">
  <1060 410 1100 410 "" 0 0 0 "">
  <920 230 1020 230 "" 0 0 0 "">
  <1080 230 1150 230 "" 0 0 0 "">
  <1280 230 1280 330 "" 0 0 0 "">
  <1220 330 1280 330 "Output" 1290 300 35 "">
  <1100 350 1100 410 "" 0 0 0 "">
  <1100 350 1150 350 "" 0 0 0 "">
  <1150 230 1220 230 "" 0 0 0 "">
  <1150 230 1150 310 "" 0 0 0 "">
  <520 450 600 450 "" 0 0 0 "">
  <520 450 520 520 "" 0 0 0 "">
  <520 520 1100 520 "" 0 0 0 "">
  <750 430 850 430 "" 0 0 0 "">
  <750 380 750 430 "" 0 0 0 "">
  <600 380 600 390 "" 0 0 0 "">
  <600 380 750 380 "" 0 0 0 "">
  <440 380 440 390 "" 0 0 0 "">
  <440 380 530 380 "" 0 0 0 "">
  <530 210 530 380 "" 0 0 0 "">
  <530 210 850 210 "" 0 0 0 "">
  <410 450 440 450 "" 0 0 0 "">
</Wires>
<Diagrams>
  <Tab 520 170 300 200 3 #c0c0c0 1 00 1 0 1 1 1 0 1 1 1 0 1 1 315 0 225 1 0 0 "" "" "">
	<"ngspice/v(output)" #0000ff 0 3 1 0 0>
  </Tab>
</Diagrams>
<Paintings>
</Paintings>
